{
  "data": [
    {
      "id": 42,
      "attributes": {
        "title": "UnoCSS动态图标icon无法显示解决方案",
        "url": "#",
        "updatedAt": "2022-06-14T08:35:43.844Z"
      }
    },
    {
      "id": 41,
      "attributes": {
        "title": "Vite使用UnoCSS编译时报错：pluginContext.emitFile is not a function error during build",
        "url": "#",
        "updatedAt": "2022-06-17T01:50:36.925Z"
      }
    },
    {
      "id": 40,
      "attributes": {
        "title": "开启macOS点击窗口内任意位置快速拖动功能",
        "url": "#",
        "updatedAt": "2022-05-23T07:01:22.116Z"
      }
    },
    {
      "id": 37,
      "attributes": {
        "title": "macOS必备软件Clipy配置备份",
        "url": "#",
        "updatedAt": "2022-05-23T02:36:54.966Z"
      }
    },
    {
      "id": 36,
      "attributes": {
        "title": "开发者需要掌握的解决BUG的技巧 - 分析报错信息",
        "url": "#",
        "updatedAt": "2022-04-15T14:33:27.167Z"
      }
    }
  ],
  "meta": {
    "pagination": {
      "page": 1,
      "pageSize": 5,
      "pageCount": 8,
      "total": 36
    }
  }
}
